Introduction to Tidy Transcriptomics • ismb2021tidytranscriptomics
…
We can use select to choose columns, for example, to see the sample, cell line and treatment columns.

airway %>% select(sample, cell, dex)
#> tidySummarizedExperiment says: Key columns are missing. A data frame is returned for independent data analysis.
#> # A tibble: 512,816 × 3
#>    sample     cell   dex  
#>    <chr>      <fct>  <fct>
#>  1 SRR1039508 N61311 untrt
#>  2 SRR1039508 N61311 untrt
#>  3 SRR1039508 N61311 untrt
#>  4 SRR1039508 N61311 untrt
#>  5 SRR1039508 N61311 untrt
#>  6 SRR1039508 N61311 untrt
#>  7 SRR1039508 N61311 untrt
#>  8 SRR1039508 N61311 untrt
#>  9 SRR1039508 N61311 untrt
#> 10 SRR1039508 N61311 untrt
#> # … with 512,806 more rows
…
We can use mutate to create a column. For example, we could create a new sample_name column that contains shorter sample names. We can remove the SRR1039 prefix that’s present in all of the samples, as shorter names can fit better in some of the plots we will create. We can use mutate together with str_replace to remove the SRR1039 string from the sample column.

airway %>%
  mutate(sample_name=str_remove(sample, "SRR1039")) %>%
  # select columns to view    
  select(sample, sample_name)
#> tidySummarizedExperiment says: Key columns are missing. A data frame is returned for independent data analysis.
#> # A tibble: 512,816 × 2
#>    sample     sample_name
#>    <chr>      <chr>      
#>  1 SRR1039508 508        
#>  2 SRR1039508 508        
#>  3 SRR1039508 508        
#>  4 SRR1039508 508        
#>  5 SRR1039508 508        
#>  6 SRR1039508 508        
#>  7 SRR1039508 508        
#>  8 SRR1039508 508        
#>  9 SRR1039508 508        
#> 10 SRR1039508 508        
#> # … with 512,806 more rows
…
BRCA_cell_type_long <-
  BRCA_cell_type %>%
  pivot_sample() %>%
  
  # Reshape
  pivot_longer(
    contains("cibersort"),
    names_prefix = "cibersort: ",
    names_to = "cell_type",
    values_to = "proportion"
  )

BRCA_cell_type_long
#> # A tibble: 484 × 5
#>    sample       time event_occurred cell_type                         proportion
#>    <chr>       <dbl>          <int> <chr>                                  <dbl>
#>  1 TCGA-A2-A0…   102              1 cibersort..B.cells.naive              0.201 
#>  2 TCGA-A2-A0…   102              1 cibersort..B.cells.memory             0     
#>  3 TCGA-A2-A0…   102              1 cibersort..Plasma.cells               0     
#>  4 TCGA-A2-A0…   102              1 cibersort..T.cells.CD8                0.0297
#>  5 TCGA-A2-A0…   102              1 cibersort..T.cells.CD4.naive          0     
#>  6 TCGA-A2-A0…   102              1 cibersort..T.cells.CD4.memory.re…     0.0841
#>  7 TCGA-A2-A0…   102              1 cibersort..T.cells.CD4.memory.ac…     0     
#>  8 TCGA-A2-A0…   102              1 cibersort..T.cells.follicular.he…     0.0556
#>  9 TCGA-A2-A0…   102              1 cibersort..T.cells.regulatory..T…     0.0484
#> 10 TCGA-A2-A0…   102              1 cibersort..T.cells.gamma.delta        0     
#> # … with 474 more rows
…
We can use mutate to create a column. For example, we could create a new sample_name column that contains shorter sample names. We can remove the SRR1039 prefix that’s present in all of the samples, as shorter names can fit better in some of the plots we will create. We can use mutate together with str_replace to remove the SRR1039 string from the sample column.

pbmc %>%
  mutate(ident_l=tolower(ident)) %>%
  # select columns to view    
  select(ident, ident_l)
#> tidySingleCellExperiment says: Key columns are missing. A data frame is returned for independent data analysis.
#> # A tibble: 3,000 × 2
#>    ident                ident_l             
#>    <fct>                <chr>               
#>  1 SingleCellExperiment singlecellexperiment
#>  2 SingleCellExperiment singlecellexperiment
#>  3 SingleCellExperiment singlecellexperiment
#>  4 SingleCellExperiment singlecellexperiment
#>  5 SingleCellExperiment singlecellexperiment
#>  6 SingleCellExperiment singlecellexperiment
#>  7 SingleCellExperiment singlecellexperiment
#>  8 SingleCellExperiment singlecellexperiment
#>  9 SingleCellExperiment singlecellexperiment
#> 10 SingleCellExperiment singlecellexperiment
#> # … with 2,990 more rows
…
Setting up the data

In this case, we want to polish an annotation column. We will extract the sample, dataset and group information from the file name column into separate columns.

# First take a look at the file column
pbmc %>% select(file)
#> tidySingleCellExperiment says: Key columns are missing. A data frame is returned for independent data analysis.
#> # A tibble: 3,000 × 1
#>    file                                                
#>    <chr>                                               
#>  1 ../data/GSE115189_1/outs/filtered_feature_bc_matrix/
#>  2 ../data/GSE115189_2/outs/filtered_feature_bc_matrix/
#>  3 ../data/GSE115189_2/outs/filtered_feature_bc_matrix/
#>  4 ../data/GSE115189_1/outs/filtered_feature_bc_matrix/
#>  5 ../data/GSE115189_2/outs/filtered_feature_bc_matrix/
#>  6 ../data/GSE115189_1/outs/filtered_feature_bc_matrix/
#>  7 ../data/GSE115189_1/outs/filtered_feature_bc_matrix/
#>  8 ../data/GSE115189_1/outs/filtered_feature_bc_matrix/
#>  9 ../data/GSE115189_1/outs/filtered_feature_bc_matrix/
#> 10 ../data/GSE115189_1/outs/filtered_feature_bc_matrix/
#> # … with 2,990 more rows

# Create columns for sample, dataset and groups
pbmc <-
  pbmc %>%

  # Extract sample and group
  extract(file, "sample", "../data/([a-zA-Z0-9_]+)/outs.+", remove = FALSE) %>%

  # Extract data source
  extract(file, c("dataset", "groups"), "../data/([a-zA-Z0-9_]+)_([0-9])/outs.+")

# Take a look
pbmc %>% select(sample, dataset, groups)
#> tidySingleCellExperiment says: Key columns are missing. A data frame is returned for independent data analysis.
#> # A tibble: 3,000 × 3
#>    sample      dataset   groups
#>    <chr>       <chr>     <chr> 
#>  1 GSE115189_1 GSE115189 1     
#>  2 GSE115189_2 GSE115189 2     
#>  3 GSE115189_2 GSE115189 2     
#>  4 GSE115189_1 GSE115189 1     
#>  5 GSE115189_2 GSE115189 2     
#>  6 GSE115189_1 GSE115189 1     
#>  7 GSE115189_1 GSE115189 1     
#>  8 GSE115189_1 GSE115189 1     
#>  9 GSE115189_1 GSE115189 1     
#> 10 GSE115189_1 GSE115189 1     
#> # … with 2,990 more rows
…
We then label the cells with high mitochondrial content as outliers.

mito_info_one_dataset <- mito_info_one_dataset %>%
      # Converting to tibble
      as_tibble(rownames = "cell") %>%

      # Label cells with high mitochondrial content
      mutate(high_mitochondrion = isOutlier(subsets_Mito_percent, type = "higher"))

mito_info_one_dataset
#> # A tibble: 300 × 8
#>    cell    sum detected subsets_Mito_sum subsets_Mito_de… subsets_Mito_pe… total
#>    <chr> <dbl>    <int>            <dbl>            <int>            <dbl> <dbl>
#>  1 CCAG…  3421      979              132               11            3.86   3421
#>  2 ATGA…  2752      898               33                9            1.20   2752
#>  3 TATG…  2114      937               21                7            0.993  2114
#>  4 CATA…  3122     1086               54               10            1.73   3122
#>  5 GAGG…  2341      957               30               10            1.28   2341
#>  6 AGCT…  5472     1758              169               13            3.09   5472
#>  7 TGAT…  1258      542               41                9            3.26   1258
#>  8 ACGA…  7683     1926              276               14            3.59   7683
#>  9 CGGC…  3500     1092               75               10            2.14   3500
#> 10 ATAG…  3092      974               37               10            1.20   3092
#> # … with 290 more rows, and 1 more variable: high_mitochondrion <otlr.flt>
…
# Mutate
pbmc_seurat %>%
  mutate(groups_l=tolower(groups)) %>%
  # select columns to view    
  select(groups, groups_l)
#> tidyseurat says: Key columns are missing. A data frame is returned for independent data analysis.
#> # A tibble: 80 × 2
#>    groups groups_l
#>    <chr>  <chr>   
#>  1 g2     g2      
#>  2 g1     g1      
#>  3 g2     g2      
#>  4 g2     g2      
#>  5 g2     g2      
#>  6 g1     g1      
#>  7 g1     g1      
#>  8 g1     g1      
#>  9 g1     g1      
#> 10 g1     g1      
#> # … with 70 more rows
…
